{"page":1,"total_results":154,"total_pages":8,"results":[{"vote_count":6444,"id":920,"video":false,"vote_average":6.7,"title":"Cars","popularity":17.724,"poster_path":"\/5damnMcRFKSjhCirgX3CMa88MBj.jpg","original_language":"en","original_title":"Cars","genre_ids":[16,12,35,10751],"backdrop_path":"\/a1MlbLBk5Sy6YvMbSuKfwGlDVlb.jpg","adult":false,"overview":"Lightning McQueen, a hotshot rookie race car driven to succeed, discovers that life is about the journey, not the finish line, when he finds himself unexpectedly detoured in the sleepy Route 66 town of Radiator Springs. On route across the country to the big Piston Cup Championship in California to compete against two seasoned pros, McQueen gets to know the town's offbeat characters.","release_date":"2006-06-08"},{"vote_count":3492,"id":49013,"video":false,"vote_average":5.9,"title":"Cars 2","popularity":17.258,"poster_path":"\/AblhtULOVtrkSnFxRPQ8gBemxw9.jpg","original_language":"en","original_title":"Cars 2","genre_ids":[16,10751,12,35],"backdrop_path":"\/jEcmZhtJkZQc6ta2vzBd9CU7GIx.jpg","adult":false,"overview":"Star race car Lightning McQueen and his pal Mater head overseas to compete in the World Grand Prix race. But the road to the championship becomes rocky as Mater gets caught up in an intriguing adventure of his own: international espionage.","release_date":"2011-06-11"},{"vote_count":2164,"id":260514,"video":false,"vote_average":6.7,"title":"Cars 3","popularity":13.647,"poster_path":"\/fyy1nDC8wm553FCiBDojkJmKLCs.jpg","original_language":"en","original_title":"Cars 3","genre_ids":[12,16,35,10751],"backdrop_path":"\/4mlS1MitcOqdPLhxEFyk9Qwf5rr.jpg","adult":false,"overview":"Blindsided by a new generation of blazing-fast racers, the legendary Lightning McQueen is suddenly pushed out of the sport he loves. To get back in the game, he will need the help of an eager young race technician with her own plan to win, inspiration from the late Fabulous Hudson Hornet, and a few unexpected turns. Proving that #95 isn't through yet will test the heart of a champion on Piston Cup Racing’s biggest stage!","release_date":"2017-06-15"},{"vote_count":90,"id":14475,"video":false,"vote_average":6.6,"title":"Used Cars","popularity":4.816,"poster_path":"\/h9hqesyEBaag8ZkgrBSaUGgGNFF.jpg","original_language":"en","original_title":"Used Cars","genre_ids":[28,35],"backdrop_path":"\/qKnki6R8UoRy8e7Q0TkDnXNssT5.jpg","adult":false,"overview":"When the owner of a struggling used car lot is killed, it's up to the lot's hot-shot salesman to save the property from falling into the hands of the owner's ruthless brother and used-car rival.","release_date":"1980-07-11"},{"vote_count":178,"id":11091,"video":false,"vote_average":6.4,"title":"Riding in Cars with Boys","popularity":5.135,"poster_path":"\/m8sA3GNlEnrtK5Xlvsn2WRHp2qv.jpg","original_language":"en","original_title":"Riding in Cars with Boys","genre_ids":[35,18,10749],"backdrop_path":"\/u7sMJRm4Y2B31HEknzgmATKxxGr.jpg","adult":false,"overview":"A single mother, with dreams of becoming a writer, has a son at the age of 15 in 1965, and goes through a failed marriage with the drug-addicted father.","release_date":"2001-10-19"},{"vote_count":20,"id":345874,"video":false,"vote_average":6.5,"title":"Stealing Cars","popularity":1.702,"poster_path":"\/wBbrkbKpMzeg0CqvOl5cBza0fIB.jpg","original_language":"en","original_title":"Stealing Cars","genre_ids":[18],"backdrop_path":"\/lIoDGj7bSoGdnDHd7NyYfyZev6J.jpg","adult":false,"overview":"A rebellious teenager navigates his way through the juvenile court system.","release_date":"2016-04-05"},{"vote_count":0,"id":493806,"video":false,"vote_average":0,"title":"People in Cars","popularity":2.351,"poster_path":"\/2t07ZTDkMdfXDOmi45N6j1YvaF3.jpg","original_language":"sv","original_title":"People in Cars","genre_ids":[18],"backdrop_path":null,"adult":false,"overview":"Everyday conversations inside cars about love, relationships and mistakes.","release_date":"2017-03-17"},{"vote_count":2,"id":38338,"video":false,"vote_average":5.5,"title":"Hot Cars","popularity":1.498,"poster_path":"\/vIzyKpDIrfSYb3Zx7z8mRq4tlyd.jpg","original_language":"en","original_title":"Hot Cars","genre_ids":[28,53],"backdrop_path":"\/2nluX5M6ROQ0Ia4GI6iXTk7tsey.jpg","adult":false,"overview":"Story of a salesman lured into the \"hot car\" racket.","release_date":"1956-01-01"},{"vote_count":28,"id":438788,"video":true,"vote_average":6,"title":"Cars Toon Mater's Tall Tales","popularity":2.74,"poster_path":"\/yiAhHVXMXQREPgiCBEU7AbQOSE7.jpg","original_language":"en","original_title":"Cars Toon Mater's Tall Tales","genre_ids":[16,35,10751],"backdrop_path":"\/u9Hm0dZgzdGBUugMjBShyIDxRhN.jpg","adult":false,"overview":"Mater the tow truck travels from country to country as he retells his infamous but unbelievable stories.","release_date":"2008-11-01"},{"vote_count":3,"id":104264,"video":false,"vote_average":7.2,"title":"Calling All Police Cars","popularity":0.93,"poster_path":"\/sjHvQTsbSUMKZ3Vszu2G5QwMDr2.jpg","original_language":"it","original_title":"...a tutte le auto della polizia...","genre_ids":[],"backdrop_path":"\/edzEgWBuhPAmZjm3B0k4jcQ8cBn.jpg","adult":false,"overview":"After the daughter of the prominent professor Icardi goes missing an investigation is quickly commenced, much to the chagrin of commisioner Solmi who thinks Icardi is receiving benefits because of his status and that instead the professor should be treated like anyone else would have been treated in his place. The girl is soon found, murdered, shot in the head. The investigation gets under way and with only a few, thin, leads to go by, it's not going to be an open and shut case...","release_date":"1975-08-28"},{"vote_count":0,"id":321265,"video":false,"vote_average":0,"title":"The Madonna of the Sleeping Cars","popularity":1.4,"poster_path":"\/uarHwE9k8uJRJBNaNRpxIv8pPEh.jpg","original_language":"fr","original_title":"La Madone des Sleepings","genre_ids":[53,18],"backdrop_path":null,"adult":false,"overview":"","release_date":"1927-01-01"},{"vote_count":25,"id":62761,"video":false,"vote_average":5.2,"title":"The Cars That Ate Paris","popularity":1.594,"poster_path":"\/rnBOKWZq3i0WOSDvVucNAnkTlEz.jpg","original_language":"en","original_title":"The Cars That Ate Paris","genre_ids":[35,27,9648,53],"backdrop_path":"\/wqcrfRJwYDxOAM3XkGbZveaWT0p.jpg","adult":false,"overview":"After the death of his brother on the road, unemployed and unstable drifter Arthur Waldo stays for a while in the rural Australian town of Paris as the guest of the mayor, who hopes he will become a permanent member of the Paris population. Arthur soon realizes the quaint hamlet has a sinister secret: they orchestrate car accidents and rob the victims. Survivors are brought to the local hospital, lobotomized, and used for a local doctor's experiments.","release_date":"1974-10-10"},{"vote_count":1,"id":271434,"video":false,"vote_average":5,"title":"Women Cars Villas Money","popularity":0.84,"poster_path":"\/1BUku7hvrsbHbSd3KmFLNLgVaX9.jpg","original_language":"fr","original_title":"FVVA: Femme, villa, voiture, argent","genre_ids":[35,18],"backdrop_path":null,"adult":false,"overview":"Ali is the image of modern Africa. He happily returns from a football match on his motorbike but a nasty surprise is waiting for him at his parents' home: he finds Haoua, his bride-to-be, waiting for him. The wedding is celebrated shortly afterwards and the two begin living together under the same roof. They are strangers but cannot stand each other. Haoua is the classic traditional woman who has just arrived from the village, God-fearing and faithful to the laws of tradition. Ali's friends advise him to look for a second wife. He meets Henriette, an uninhibited and provocative city girl, the woman of his dreams. To meet Henriette's constant requests, Ali 'borrows' some money from the coffers of commander Soleymane, but he is discovered and ends up in prison. Henriette is furious and leaves him, whilst Haoua cries for him in despair.","release_date":"1972-01-02"},{"vote_count":1,"id":147771,"video":false,"vote_average":4,"title":"Killing Cars","popularity":0.84,"poster_path":"\/elr5ORMIWRPjUkeqs1f3akW8Wgs.jpg","original_language":"de","original_title":"Killing Cars","genre_ids":[53,28],"backdrop_path":"\/oGRGAPkoVfFWohAaQs1LxQGLq28.jpg","adult":false,"overview":"In a complex story of automotive intrigue, oil barons, corporate finance, and international villainy, the inventor of an environmentally friendly car powered by energy cells becomes the target of killers. After Ralph Korda has given his patented worldcar to a German automaker for testing, he is confronted by ominous men, eager to get their hands on his patent. Evil Arab petroleum lords also want to stop this threat to the gasoline market any way they can.","release_date":"1986-02-13"},{"vote_count":6,"id":296159,"video":false,"vote_average":6.2,"title":"Cars Toons: Tales from Radiator Springs - Bugged","popularity":1.788,"poster_path":"\/q0KSHM3dOFeCm326QPCpcVHwwav.jpg","original_language":"en","original_title":"Cars Toons: Tales from Radiator Springs - Bugged","genre_ids":[16],"backdrop_path":"\/a0eJrgtiwqBC2gkZFjSg67lANRp.jpg","adult":false,"overview":"Bugged is the second episode of Cars Toons: Tales from Radiator Springs. Red was watering his flowers when a bug flies up to his face. Red blows it away, but it comes back. He tries blowing it more, but it was still coming back. He tries shaking it off, and even honking his horn, but it still wouldn't leave. Then, he tries to splash water on it, and it worked. He was happy, until he sees the bug on Stanley's statue. He was sad, as the bug was covered with water and couldn't fly. Red blows him dry, and he was able to fly again. Red watches the bug fly away, and goes back to watering his flowers. However, the bug comes back with two more bugs. The bugs still bother him, but he still continues watering his flowers.","release_date":"2013-03-22"},{"vote_count":8,"id":324260,"video":false,"vote_average":7.6,"title":"Bikes vs Cars","popularity":1.129,"poster_path":"\/8KEZ7cn2VlJy9Lz3uIFImFJ5H9S.jpg","original_language":"en","original_title":"Bikes vs Cars","genre_ids":[99],"backdrop_path":"\/mdTE2dv7chGdattcKb1ewcf4TtA.jpg","adult":false,"overview":"Bikes vs Cars depicts a global crisis that we all deep down know we need to talk about: Climate, earth's resources, cities where the entire surface is consumed by the car. An ever-growing, dirty, noisy traffic chaos. The bike is a great tool for change, but the powerful interests who gain from the private car invest billions each year on lobbying and advertising to protect their business. In the film we meet activists and thinkers who are fighting for better cities, who refuse to stop riding despite the increasing number killed in traffic.","release_date":"2015-03-15"},{"vote_count":5,"id":296137,"video":false,"vote_average":6,"title":"Cars Toons: Tales from Radiator Springs - Spinning","popularity":1.937,"poster_path":"\/ej4Huv3qqheHXdMNfph7XTMyoo4.jpg","original_language":"en","original_title":"Cars Toons: Tales from Radiator Springs - Spinning","genre_ids":[16],"backdrop_path":"\/lOEwbY2yenIkDI9sEcB2Bjp57wp.jpg","adult":false,"overview":"Spinning is the third Cars Toons: Tales from Radiator Springs. Guido was holding a sign in front of Luigi's Casa Della Tires to get customers to come to the shop. Then Luigi comes and tells Guido to shake the sign, and goes back into the shop. Guido shakes the sign, then starts getting fancy with the shaking, and even spins the tip on his fork. Lightning notices Guido and tells everyone to check out what he's doing. Soon, a lot of cars were there to see Guido. Guido starts dancing with the sign, while DJ plays some music. At the end, Guido tosses the sign high into the sky, and catches it while balancing on two tires and says, \"Pit stop.\" Everyone cheers and drives away. Guido daydreams about his dancing, until Luigi, who hasn't watched Guido dance with the sign, comes back out and tells him to shake the sign. The short ends with an iris going on Guido shaking the sign.","release_date":"2013-03-22"},{"vote_count":0,"id":485621,"video":false,"vote_average":0,"title":"Cars D'oeuvres","popularity":0.6,"poster_path":"\/ppqxzUP0XmllXD8bQGmggY6hCEL.jpg","original_language":"en","original_title":"Cars D'oeuvres","genre_ids":[],"backdrop_path":null,"adult":false,"overview":"Characters from Pixar's Cars 3 participate in goofy antics.","release_date":"2017-11-07"},{"vote_count":6,"id":230767,"video":false,"vote_average":6.7,"title":"Cars Toons: Tales from Radiator Springs - Hiccups","popularity":1.606,"poster_path":"\/7ubsErOSXOUSNvO0nwpQKE7ycxW.jpg","original_language":"en","original_title":"Cars Toons: Tales from Radiator Springs - Hiccups","genre_ids":[16],"backdrop_path":"\/AhmDvntNwQ77850j72BO1xenswR.jpg","adult":false,"overview":"Lightning McQueen gets hiccups and the residents of Radiator Springs give him advice on how to cure them.","release_date":"2013-03-22"},{"vote_count":46,"id":10751,"video":false,"vote_average":7,"title":"Old Men in New Cars: In China They Eat Dogs II","popularity":3.704,"poster_path":"\/gz459nMTYhiwkbLyNXm4nshJ6OE.jpg","original_language":"da","original_title":"Gamle mænd i nye biler","genre_ids":[28,35,80,53],"backdrop_path":"\/uLI7FeINOWhn8r48wq8TjXQHOVD.jpg","adult":false,"overview":"The last wish of the dying \"Monk\" is for his foster child, Harald, to find his real son, Ludvig. But the latter is currently in a Swedish prison cell...","release_date":"2002-07-12"}]}